-- PROMPT Creating table CLIENT
CREATE TABLE CLIENT
(
   ID           NUMBER(10) NOT NULL,
   NAME         VARCHAR2(120) NOT NULL,
   PHONE        NUMBER(11) NOT NULL,
   BIRTHDATE    DATE
)
/

-- PROMPT Adding comments to the table CLIENT
COMMENT ON TABLE CLIENT IS 'Клиент';

-- PROMPT Create/Recreate primary, unique and foreign key constraints  CLIENT
ALTER TABLE CLIENT
   ADD CONSTRAINT CLIENT_PK PRIMARY KEY (ID);
